<?xml version="1.0" encoding="UTF-8" standalone="no"?>
<!-- Created with Inkscape (http://www.inkscape.org/) -->

<svg
   width="145.25641mm"
   height="169.79486mm"
   viewBox="0 0 145.25641 169.79486"
   version="1.1"
   id="svg14662"
   inkscape:version="1.2.2 (732a01da63, 2022-12-09)"
   sodipodi:docname="rock 5.svg"
   inkscape:export-filename="..\..\world\platforms\rock5.png"
   inkscape:export-xdpi="100"
   inkscape:export-ydpi="100"
   xmlns:inkscape="http://www.inkscape.org/namespaces/inkscape"
   xmlns:sodipodi="http://sodipodi.sourceforge.net/DTD/sodipodi-0.dtd"
   xmlns="http://www.w3.org/2000/svg"
   xmlns:svg="http://www.w3.org/2000/svg">
  <sodipodi:namedview
     id="namedview14664"
     pagecolor="#ffffff"
     bordercolor="#000000"
     borderopacity="0.25"
     inkscape:showpageshadow="2"
     inkscape:pageopacity="0.0"
     inkscape:pagecheckerboard="0"
     inkscape:deskcolor="#d1d1d1"
     inkscape:document-units="mm"
     showgrid="false"
     inkscape:zoom="0.93806818"
     inkscape:cx="203.60993"
     inkscape:cy="395.49364"
     inkscape:window-width="2560"
     inkscape:window-height="1377"
     inkscape:window-x="-8"
     inkscape:window-y="601"
     inkscape:window-maximized="1"
     inkscape:current-layer="layer1" />
  <defs
     id="defs14659" />
  <g
     inkscape:label="Layer 1"
     inkscape:groupmode="layer"
     id="layer1"
     transform="translate(-51.051282,-51.333333)">
    <path
       style="fill:#3e2731;stroke-width:0.264583"
       d="m 124.66667,74.743588 -18.20778,15.985658 -31.171823,-7.260826 0.18158,33.47273 -10.314802,23.23834 -14.102563,80.94871 38.358969,-4.23077 39.487179,-10.71794 26.59416,-12.1252 17.96995,-14.66968 -7.25296,-23.71569 14.96008,-14.2534 15.13903,-90.082187 z"
       id="path14783"
       sodipodi:nodetypes="cccccccccccccc" />
  </g>
</svg>
