<?xml version="1.0" encoding="UTF-8" standalone="no"?>
<!-- Created with Inkscape (http://www.inkscape.org/) -->

<svg
   width="155.41026mm"
   height="118.1693mm"
   viewBox="0 0 155.41026 118.1693"
   version="1.1"
   id="svg14531"
   inkscape:version="1.2.2 (732a01da63, 2022-12-09)"
   sodipodi:docname="rock 4.svg"
   inkscape:export-filename="..\..\world\platforms\rock4.png"
   inkscape:export-xdpi="100"
   inkscape:export-ydpi="100"
   xmlns:inkscape="http://www.inkscape.org/namespaces/inkscape"
   xmlns:sodipodi="http://sodipodi.sourceforge.net/DTD/sodipodi-0.dtd"
   xmlns="http://www.w3.org/2000/svg"
   xmlns:svg="http://www.w3.org/2000/svg">
  <sodipodi:namedview
     id="namedview14533"
     pagecolor="#ffffff"
     bordercolor="#000000"
     borderopacity="0.25"
     inkscape:showpageshadow="2"
     inkscape:pageopacity="0.0"
     inkscape:pagecheckerboard="0"
     inkscape:deskcolor="#d1d1d1"
     inkscape:document-units="mm"
     showgrid="false"
     inkscape:zoom="0.93806818"
     inkscape:cx="301.68383"
     inkscape:cy="364.57904"
     inkscape:window-width="2560"
     inkscape:window-height="1377"
     inkscape:window-x="-8"
     inkscape:window-y="601"
     inkscape:window-maximized="1"
     inkscape:current-layer="layer1" />
  <defs
     id="defs14528" />
  <g
     inkscape:label="Layer 1"
     inkscape:groupmode="layer"
     id="layer1"
     transform="translate(-25.102564,-52.471719)">
    <path
       style="fill:#3e2731;stroke-width:0.264583"
       d="m 46.538461,71.358973 69.103279,-18.887254 55.28133,10.143664 -15.80175,35.508477 25.3915,52.49152 -57.00796,-0.46711 L 70.230768,170.64102 58.948716,122.69231 25.102564,73.897436 Z"
       id="path14652"
       sodipodi:nodetypes="cccccccccc" />
  </g>
</svg>
