<?xml version="1.0" encoding="UTF-8" standalone="no"?>
<!-- Created with Inkscape (http://www.inkscape.org/) -->

<svg
   width="48.852718mm"
   height="42.796227mm"
   viewBox="0 0 48.852718 42.796227"
   version="1.1"
   id="svg5550"
   inkscape:version="1.2.2 (732a01da63, 2022-12-09)"
   sodipodi:docname="gem3.svg"
   inkscape:export-filename="..\..\..\world\pickups\gem3.png"
   inkscape:export-xdpi="650"
   inkscape:export-ydpi="650"
   xmlns:inkscape="http://www.inkscape.org/namespaces/inkscape"
   xmlns:sodipodi="http://sodipodi.sourceforge.net/DTD/sodipodi-0.dtd"
   xmlns:xlink="http://www.w3.org/1999/xlink"
   xmlns="http://www.w3.org/2000/svg"
   xmlns:svg="http://www.w3.org/2000/svg">
  <sodipodi:namedview
     id="namedview5552"
     pagecolor="#ffffff"
     bordercolor="#000000"
     borderopacity="0.25"
     inkscape:showpageshadow="2"
     inkscape:pageopacity="0.0"
     inkscape:pagecheckerboard="0"
     inkscape:deskcolor="#d1d1d1"
     inkscape:document-units="mm"
     showgrid="false"
     inkscape:zoom="1.3266287"
     inkscape:cx="86.685895"
     inkscape:cy="203.52341"
     inkscape:window-width="2560"
     inkscape:window-height="1377"
     inkscape:window-x="-8"
     inkscape:window-y="601"
     inkscape:window-maximized="1"
     inkscape:current-layer="layer1" />
  <defs
     id="defs5547">
    <linearGradient
       inkscape:collect="always"
       id="linearGradient28576">
      <stop
         style="stop-color:#fee761;stop-opacity:1;"
         offset="0.21111111"
         id="stop28572" />
      <stop
         style="stop-color:#b1e7ad;stop-opacity:1;"
         offset="0.90833336"
         id="stop28574" />
    </linearGradient>
    <radialGradient
       inkscape:collect="always"
       xlink:href="#linearGradient28576"
       id="radialGradient28966"
       cx="117.45468"
       cy="129.77734"
       fx="117.45468"
       fy="129.77734"
       r="24.426357"
       gradientTransform="matrix(-0.05574394,0.89191235,-1.0925188,-0.06828192,265.78626,33.311162)"
       gradientUnits="userSpaceOnUse" />
  </defs>
  <g
     inkscape:label="Layer 1"
     inkscape:groupmode="layer"
     id="layer1"
     transform="translate(-82.783913,-86.244118)">
    <path
       sodipodi:type="star"
       style="fill:url(#radialGradient28966);fill-opacity:1;stroke-width:0.264583"
       id="path5725"
       inkscape:flatsided="true"
       sodipodi:sides="3"
       sodipodi:cx="117.89744"
       sodipodi:cy="132"
       sodipodi:r1="28.21077"
       sodipodi:r2="14.105384"
       sodipodi:arg1="-1.550799"
       sodipodi:arg2="-0.50360144"
       inkscape:rounded="0"
       inkscape:randomized="0"
       d="m 118.46154,103.79487 23.58021,42.79622 -48.852722,-0.97705 z"
       inkscape:transform-center-x="-0.28205289"
       inkscape:transform-center-y="-6.8070169"
       transform="rotate(-2.2915382,-326.35359,397.45365)" />
  </g>
</svg>
