<?xml version="1.0" encoding="UTF-8" standalone="no"?>
<!-- Created with Inkscape (http://www.inkscape.org/) -->

<svg
   width="46.820511mm"
   height="46.820511mm"
   viewBox="0 0 46.820511 46.820511"
   version="1.1"
   id="svg7677"
   inkscape:version="1.2.2 (732a01da63, 2022-12-09)"
   sodipodi:docname="gem4.svg"
   inkscape:export-filename="..\..\..\world\pickups\gem4.png"
   inkscape:export-xdpi="650"
   inkscape:export-ydpi="650"
   xmlns:inkscape="http://www.inkscape.org/namespaces/inkscape"
   xmlns:sodipodi="http://sodipodi.sourceforge.net/DTD/sodipodi-0.dtd"
   xmlns="http://www.w3.org/2000/svg"
   xmlns:svg="http://www.w3.org/2000/svg">
  <sodipodi:namedview
     id="namedview7679"
     pagecolor="#ffffff"
     bordercolor="#000000"
     borderopacity="0.25"
     inkscape:showpageshadow="2"
     inkscape:pageopacity="0.0"
     inkscape:pagecheckerboard="0"
     inkscape:deskcolor="#d1d1d1"
     inkscape:document-units="mm"
     showgrid="false"
     inkscape:zoom="1.3266287"
     inkscape:cx="106.28445"
     inkscape:cy="185.43244"
     inkscape:window-width="2560"
     inkscape:window-height="1377"
     inkscape:window-x="-8"
     inkscape:window-y="601"
     inkscape:window-maximized="1"
     inkscape:current-layer="layer1" />
  <defs
     id="defs7674" />
  <g
     inkscape:label="Layer 1"
     inkscape:groupmode="layer"
     id="layer1"
     transform="translate(-79.644556,-88.213614)">
    <path
       sodipodi:type="star"
       style="fill:#f77622;fill-opacity:1;stroke-width:0.264583"
       id="path7850"
       inkscape:flatsided="true"
       sodipodi:sides="4"
       sodipodi:cx="89.692307"
       sodipodi:cy="112.82051"
       sodipodi:r1="32.908264"
       sodipodi:r2="23.269657"
       sodipodi:arg1="-0.77933763"
       sodipodi:arg2="0.0060605319"
       inkscape:rounded="0"
       inkscape:randomized="0"
       d="m 113.10256,89.692307 -0.28205,46.538463 -46.538459,-0.28206 0.282052,-46.538454 z"
       inkscape:transform-center-x="1.1299818e-06"
       inkscape:transform-center-y="-1.4213608e-06"
       transform="translate(13.362505,-1.1966422)" />
  </g>
</svg>
