<?xml version="1.0" encoding="UTF-8" standalone="no"?>
<!-- Created with Inkscape (http://www.inkscape.org/) -->

<svg
   width="76.204216mm"
   height="593.00842mm"
   viewBox="0 0 76.204216 593.00842"
   version="1.1"
   id="svg13352"
   xml:space="preserve"
   inkscape:version="1.2.2 (732a01da63, 2022-12-09)"
   sodipodi:docname="flower.svg"
   inkscape:export-filename="..\..\enemies\flower.png"
   inkscape:export-xdpi="200"
   inkscape:export-ydpi="200"
   xmlns:inkscape="http://www.inkscape.org/namespaces/inkscape"
   xmlns:sodipodi="http://sodipodi.sourceforge.net/DTD/sodipodi-0.dtd"
   xmlns="http://www.w3.org/2000/svg"
   xmlns:svg="http://www.w3.org/2000/svg"><sodipodi:namedview
     id="namedview13354"
     pagecolor="#ffffff"
     bordercolor="#000000"
     borderopacity="0.25"
     inkscape:showpageshadow="2"
     inkscape:pageopacity="0.0"
     inkscape:pagecheckerboard="0"
     inkscape:deskcolor="#d1d1d1"
     inkscape:document-units="mm"
     showgrid="false"
     inkscape:zoom="0.33165719"
     inkscape:cx="205.03099"
     inkscape:cy="982.94267"
     inkscape:window-width="2560"
     inkscape:window-height="1377"
     inkscape:window-x="-8"
     inkscape:window-y="601"
     inkscape:window-maximized="1"
     inkscape:current-layer="layer2" /><defs
     id="defs13349" /><g
     inkscape:groupmode="layer"
     id="layer2"
     inkscape:label="stem"
     transform="translate(-72.759974,-79.594918)"><path
       style="fill:#e43b44;fill-opacity:1;stroke-width:0.264583"
       d="m 112.60897,166.76282 -0.14102,-3.24359 7.54487,1.05769 z"
       id="path20390" /><path
       style="fill:#e43b44;fill-opacity:1;stroke-width:0.283303"
       d="m 110.93524,199.65069 0.64031,-3.19826 8.18838,2.6525 z"
       id="path21587" /><path
       style="fill:#e43b44;fill-opacity:1;stroke-width:0.195854"
       d="m 109.2059,224.72436 -0.12257,-2.04487 6.55769,0.6668 z"
       id="path21589" /><path
       style="fill:#e43b44;fill-opacity:1;stroke-width:0.264583"
       d="m 108.75602,258.93088 -0.7239,-3.10606 7.63133,-0.85629 z"
       id="path21591" /><path
       style="fill:#e43b44;fill-opacity:1;stroke-width:0.28136"
       d="m 109.17229,272.8141 -0.15947,-3.24359 8.53205,1.05769 z"
       id="path21593" /><path
       style="fill:#e43b44;fill-opacity:1;stroke-width:0.264583"
       d="m 107.67307,298.05769 -0.14102,-3.24359 7.54487,1.05769 z"
       id="path21595" /><path
       style="fill:#e43b44;fill-opacity:1;stroke-width:0.264583"
       d="m 105.98076,329.08333 -0.14102,-3.24359 7.54487,1.05769 z"
       id="path21597" /><path
       style="fill:#e43b44;fill-opacity:1;stroke-width:0.264583"
       d="m 106.12179,372.9423 -0.14102,-3.24359 7.54487,1.05769 z"
       id="path21599" /><path
       style="fill:#e43b44;fill-opacity:1;stroke-width:0.264583"
       d="m 102.37544,406.81265 -0.14102,-3.24359 7.54487,1.05769 z"
       id="path21601" /><path
       style="fill:#e43b44;fill-opacity:1;stroke-width:0.264583"
       d="m 105.07082,430.53158 -0.14102,-3.24359 7.54487,1.05769 z"
       id="path21603" /><path
       style="fill:#e43b44;fill-opacity:1;stroke-width:0.264583"
       d="m 109.89256,174.68646 -1.06266,3.06782 -6.62601,-3.76031 z"
       id="path21605" /><path
       style="fill:#e43b44;fill-opacity:1;stroke-width:0.341849"
       d="m 106.99835,204.76887 0.21221,5.21456 -7.84621,-1.46383 z"
       id="path21607" /><path
       style="fill:#e43b44;fill-opacity:1;stroke-width:0.264583"
       d="m 105.89284,229.02881 0.11567,2.91117 -8.5471,-4.83043 z"
       id="path21609" /><path
       style="fill:#e43b44;fill-opacity:1;stroke-width:0.286743"
       d="m 104.79911,243.49763 0.22555,3.36401 -8.339798,2.27461 z"
       id="path21611" /><path
       style="fill:#e43b44;fill-opacity:1;stroke-width:0.264583"
       d="m 104.66972,279.30106 0.80109,3.14627 -7.601772,0.50694 z"
       id="path21613" /><path
       style="fill:#e43b44;fill-opacity:1;stroke-width:0.264583"
       d="m 103.90342,310.11504 0.20458,3.2402 -7.564164,-0.90959 z"
       id="path21615" /><path
       style="fill:#e43b44;fill-opacity:1;stroke-width:0.264583"
       d="m 103.05727,340.1535 0.20458,3.2402 -7.564168,-0.90959 z"
       id="path21617" /><path
       style="fill:#e43b44;fill-opacity:1;stroke-width:0.264583"
       d="m 102.94631,381.68054 0.20459,3.2402 -7.564176,-0.90959 z"
       id="path21619" /><path
       style="display:inline;fill:#3e8948;fill-opacity:1;stroke-width:0.264583"
       d="m 106.23612,537.95618 1.59554,-71.39964 -0.5954,-27.18939 -0.9055,-39.28978 1.99441,-31.91045 -1.19665,-40.68583 3.76033,-41.88248 -2.79216,-38.69143 6.38209,-65.81532 -1.19664,-32.70822 1.9944,-13.56195 -5.18545,-1.59552 -3.39049,16.95243 2.19385,28.91885 -3.39049,31.31214 -2.19384,35.69983 0.79776,40.68582 -2.56369,39.88808 v 41.08471 l -0.39888,31.11271 1.30438,42.08193 1.09399,27.38883 -7.154927,204.25186 9.996957,-1.47087"
       id="path20175"
       sodipodi:nodetypes="cccccccccccccccccccccccc" /><path
       style="fill:#e43b44;fill-opacity:1;stroke-width:0.264583"
       d="m 104.12126,438.20518 0.80109,3.14627 -7.601774,0.50694 z"
       id="path411" /><path
       style="fill:#e43b44;fill-opacity:1;stroke-width:0.264583"
       d="m 106.52067,465.28319 -0.14102,-3.24359 7.54487,1.05769 z"
       id="path413" /><path
       style="fill:#e43b44;fill-opacity:1;stroke-width:0.264583"
       d="m 104.14295,488.97946 0.20459,3.2402 -7.564174,-0.90959 z"
       id="path415" /><path
       style="fill:#e43b44;fill-opacity:1;stroke-width:0.264583"
       d="m 104.38524,544.08006 -0.14102,-3.24359 7.54487,1.05769 z"
       id="path417" /></g><g
     inkscape:label="flower"
     inkscape:groupmode="layer"
     id="layer1"
     transform="translate(-72.759974,-79.594918)"><path
       style="fill:#e43b44;fill-opacity:1;stroke-width:0.264583"
       d="m 107.53205,108.73077 c 1.64866,-2.4319 -1.76127,-12.324863 -1.6218,-16.006412 0.13947,-3.681549 0.35628,-3.869826 1.0577,-5.923076 0.70142,-2.05325 2.05936,-5.297562 3.24359,-6.20513 1.18423,-0.907568 1.34967,-0.334118 1.90384,-0.423077 0.55417,-0.08896 0.91046,-0.287082 1.41026,-0.141026 0.4998,0.146056 0.7831,0.443493 1.33974,1.057693 0.55664,0.6142 1.2332,1.374725 1.76282,2.75 0.52962,1.375275 0.78477,3.906266 0.91667,5.5 0.1319,1.593734 0.0176,1.997736 0,4.019232 -0.0176,2.021496 0.0291,5.262037 -0.14103,8.108976 -0.17016,2.84694 -4.61742,7.38714 -0.91666,8.95512 3.70076,1.56798 6.68748,-9.05446 9.73077,-11.564096 3.04329,-2.509635 5.38547,-3.317839 7.47436,-4.160258 2.08889,-0.842419 3.64339,-1.246139 4.79487,-1.26923 1.15148,-0.02309 1.30267,0.23267 1.90384,0.423076 0.60117,0.190406 1.23056,-0.0041 1.69231,0.705128 0.46175,0.709208 0.36099,1.889893 -0.0705,3.243591 -0.43149,1.353698 -1.564,2.735099 -2.96154,4.371799 -1.39754,1.6367 -2.49808,3.11776 -5.57051,5.21794 -3.07243,2.10018 -11.30784,4.64794 -12.60823,7.09406 -1.30039,2.44612 -1.53393,0.33969 -0.36613,1.15594 1.1678,0.81625 3.61926,-1.08501 6.48718,-1.33974 2.86792,-0.25473 7.81166,-0.2364 10.64743,0.28205 2.83577,0.51845 4.94365,1.31793 6.27565,2.1859 1.332,0.86797 1.54323,1.24525 1.97435,2.11538 0.43112,0.87013 0.6447,2.03648 0.49359,2.89103 -0.15111,0.85455 -0.52522,1.37138 -1.1282,1.97436 -0.60298,0.60298 -0.89023,1.01701 -2.46795,1.41026 -1.57772,0.39325 -2.5517,0.3441 -6.91026,-0.21154 -4.35856,-0.55564 -18.40383,-3.94872 -18.96794,-4.30129 -0.56411,-0.35257 3.17036,3.29274 5.64102,5.21795 2.47066,1.92521 7.21231,4.13496 9.30769,6.0641 2.09538,1.92914 2.7415,3.07696 3.66667,4.72437 0.92517,1.64741 1.73959,3.58967 1.90384,5.0064 0.16425,1.41673 0.0968,2.51997 -0.42307,3.17308 -0.51987,0.65311 -1.32856,0.25715 -1.69231,0.63462 -0.36375,0.37747 0.12687,0.90571 -0.42308,1.26923 -0.54995,0.36352 -0.96077,0.27791 -2.60897,-0.21154 -1.6482,-0.48945 -4.16008,-1.53597 -6.76923,-3.66667 -2.60915,-2.1307 -6.2148,-6.88998 -8.03846,-9.58974 -1.82366,-2.69976 -1.57026,-5.75261 -3.3141,-6.20513 -1.74384,-0.45252 -2.84181,0.79663 -3.17308,2.04487 -0.33127,1.24824 1.20067,1.39656 1.83333,3.52564 0.63266,2.12908 0.84417,6.32603 0.91667,9.30769 0.0725,2.98166 -0.0908,6.47634 -0.42308,8.53206 -0.33227,2.05572 -0.49226,2.9033 -1.05769,3.80769 -0.56543,0.90439 -1.18829,1.40892 -1.83334,1.62179 -0.64505,0.21287 -1.06498,-0.0257 -1.62179,-0.14102 -0.55681,-0.11533 -0.88836,0.003 -1.69231,-0.5641 -0.80395,-0.567 -1.62843,-1.17584 -2.53846,-3.24359 -0.91003,-2.06775 -1.75366,-5.16001 -1.55128,-9.30769 0.20238,-4.14768 3.86599,-12.5432 3.07189,-15.89606 -0.7941,-3.35286 -0.75378,-3.21042 -2.50779,-2.93087 -1.75401,0.27955 -0.99117,3.32051 -2.1859,5.00641 -1.19473,1.6859 -2.883856,3.03783 -5.076919,4.72436 -2.193063,1.68653 -5.944322,4.17535 -8.179485,5.14744 -2.235163,0.97209 -3.561847,1.41968 -4.794872,1.26923 -1.233025,-0.15045 -1.662399,-0.61465 -2.185898,-1.19872 -0.523499,-0.58407 -0.897877,-0.8046 -0.846156,-2.04487 0.05172,-1.24027 0.614589,-2.48808 2.397438,-4.65385 1.782849,-2.16577 6.445145,-5.50673 9.096152,-7.19231 2.651007,-1.68558 4.789923,-2.76604 6.487181,-3.24359 1.697258,-0.47755 2.728429,0.54832 3.314099,-0.28205 0.58567,-0.83037 0.81268,-1.92526 -0.70512,-2.67948 -1.517801,-0.75422 -4.620125,2.28953 -6.839748,2.82051 -2.219623,0.53098 -3.94736,0.5523 -6.275642,0.49359 -2.328282,-0.0587 -5.363393,-0.23414 -7.615395,-0.98718 -2.252002,-0.75304 -4.865203,-2.08939 -5.711537,-3.24359 -0.846334,-1.1542 -0.33513,-1.46756 -0.423076,-1.97436 -0.08795,-0.5068 -0.128185,-0.69167 -0.141026,-1.05769 -0.01284,-0.36602 -0.244643,-0.47071 0.07051,-1.12821 0.315153,-0.6575 0.733508,-1.30972 2.397437,-2.1859 1.663929,-0.87618 4.738335,-1.52848 7.826922,-1.83333 3.088587,-0.30485 7.702877,-0.0426 10.576923,0.35257 2.874046,0.39518 5.141356,1.91631 6.628202,1.62179 1.48685,-0.29452 -0.36744,0.96156 -0.3173,-1.86859 0.0501,-2.83015 -6.949916,-6.88308 -9.413467,-8.56731 -2.463551,-1.684233 -1.574483,-0.52953 -2.75,-1.621793 -1.175517,-1.092258 -3.000905,-3.789875 -3.666667,-5.28846 -0.665762,-1.498585 -0.930856,-2.517256 -0.77564,-3.314102 0.155216,-0.796846 0.441566,-0.762246 0.846154,-1.198718 0.404588,-0.436472 1.217847,-1.076792 1.621795,-1.339744 0.403948,-0.262952 -0.07753,-0.270092 0.70513,-0.352563 0.782657,-0.08247 2.486922,0.344406 3.807693,0.987179 1.320771,0.642773 2.4781,1.736558 3.878204,2.961537 1.400104,1.224979 2.725695,2.277992 4.442309,4.442309 1.716619,2.164317 4.535759,6.516295 5.429489,8.743595 0.89373,2.2273 0.0401,3.53328 0.84615,4.01922 0.80608,0.48594 -0.16789,2.00883 1.48077,-0.42307 z"
       id="path14606"
       sodipodi:nodetypes="zzzzzzzzzzzzzzzzzzzzzzzzzzzzzzzzzzzzzzzzzzzzzzzzzzzzzzzzzzzzzzzzzzzzzzzzzzzzzzzzzzzzzzzzzz" /><path
       style="fill:#a22633;fill-opacity:1;stroke-width:0.264583"
       d="m 104.78205,108.66025 c -0.12373,-1.02981 -1.78799,-0.91489 -3.17308,-2.60897 -1.38509,-1.69408 -3.254281,-5.39801 -4.230766,-7.967948 -0.976485,-2.569937 -1.36007,-4.952803 -1.762821,-7.262821 -0.402751,-2.310018 -0.881532,-5.044965 -0.705128,-6.557692 0.176404,-1.512727 0.56961,-1.803106 0.846154,-2.397435 0.276544,-0.594329 0.348155,-1.045204 0.705127,-1.198718 0.356972,-0.153514 0.548621,0.34599 0.916668,0.211539 0.368047,-0.134451 0.446719,-0.92849 0.846153,-1.128207 0.399434,-0.199717 0.612027,-0.213712 1.26923,0 0.657203,0.213712 1.162863,0.408165 2.326923,1.69231 1.16406,1.284145 3.02877,4.933231 3.80769,6.487178 0.77892,1.553947 0.4313,0.519981 1.12821,2.679488 0.69691,2.159507 1.99116,7.798151 2.39743,10.435896 0.40627,2.63774 -0.55437,4.15073 0.42308,5.28846 0.97745,1.13773 2.81884,0.67703 3.59615,0.84616 0.77731,0.16913 0.49623,0.72168 1.0577,0.21153 0.56147,-0.51015 -0.48399,-1.7754 -0.35256,-3.45512 0.13143,-1.67972 0.95356,-4.412215 1.6923,-6.416671 0.73874,-2.004456 1.55026,-3.583889 2.67949,-5.570513 1.12923,-1.986624 2.65327,-4.627628 4.16026,-6.275639 1.50699,-1.648011 3.40833,-3.316165 4.58333,-3.666667 1.175,-0.350502 1.02009,-0.245655 1.48077,0.141025 0.46068,0.38668 0.10494,1.714941 0.5641,2.044872 0.45916,0.329931 0.67898,-0.452235 1.26923,-0.07051 0.59025,0.381725 0.84484,1.35655 1.05769,2.75 0.21285,1.39345 0.0253,3.766582 -0.35256,5.5 -0.37782,1.733418 -0.66856,2.377157 -1.83333,4.794871 -1.16477,2.417714 -4.05524,7.182712 -5.57052,9.448712 -1.51528,2.266 -2.89065,3.06333 -3.24359,4.30129 -0.35294,1.23796 -0.8044,1.87726 0.21154,2.32692 1.01594,0.44966 2.10277,-1.80441 3.45513,-2.60898 1.35236,-0.80457 2.58898,-1.4394 4.65385,-2.11538 2.06487,-0.67598 5.61155,-1.2792 7.75641,-1.62179 2.14486,-0.34259 3.55618,-0.62749 5.07692,-0.56411 1.52074,0.0634 2.91537,0.40877 3.94872,0.77564 1.03335,0.36687 1.7271,0.7929 2.25641,1.19872 0.52931,0.40582 0.74683,0.50116 0.98718,1.05769 0.24035,0.55653 0.35227,1.409 0.14102,2.1859 -0.21125,0.7769 -0.58727,1.29547 -1.48077,2.1859 -0.8935,0.89043 -2.16891,2.02065 -4.08974,2.75 -1.92083,0.72935 -3.73422,0.74602 -7.33333,0.98718 -3.59911,0.24116 -11.98666,-1.4727 -14.24359,0 -2.25693,1.4727 -1.51622,0.61382 -0.77564,1.76282 0.74058,1.149 3.66705,-0.24881 6.27564,0.0705 2.60859,0.31931 6.62385,1.20559 9.23718,2.1859 2.61333,0.98031 4.9498,2.2582 6.41666,3.38461 1.46686,1.12641 2.03156,1.91675 2.60898,2.82052 0.57742,0.90377 1.16308,1.77093 0.98718,2.39743 -0.1759,0.6265 -0.91488,0.43087 -1.05769,0.77564 -0.14281,0.34477 0.3662,0.39458 0.14102,0.91667 -0.22518,0.52209 -1.06284,1.02324 -2.04487,1.41026 -0.98203,0.38702 -2.33515,0.56029 -3.80769,0.5641 -1.47254,0.004 -3.04205,-0.25805 -4.9359,-0.70513 -1.89385,-0.44708 -4.40324,-1.26859 -6.34615,-2.11538 -1.94291,-0.84679 -3.68238,-1.59699 -5.28847,-2.89103 -1.60609,-1.29404 -2.7617,-4.51683 -4.16025,-4.79487 -1.39855,-0.27804 -1.21753,-0.87562 -1.97436,0.98718 -0.75683,1.8628 2.34596,6.5547 3.24359,9.30769 0.89763,2.75299 1.60388,4.89656 2.1859,7.19231 0.58202,2.29575 1.32489,4.61706 1.33974,6.55769 0.0148,1.94063 -0.48154,3.81376 -0.91667,4.86538 -0.43513,1.05162 -0.59634,1.2756 -1.05769,1.55129 -0.46135,0.27569 -0.81048,0.0725 -1.33974,0.14102 -0.52926,0.0685 -1.19776,0.39701 -1.83334,0.28206 -0.63558,-0.11495 -0.79522,-0.10678 -1.76282,-0.98719 -0.9676,-0.88041 -2.09842,-2.04155 -3.3141,-4.79487 -1.21568,-2.75332 -2.26308,-8.54763 -2.75,-11.91666 -0.48692,-3.36903 0.59269,-6.57522 -0.49359,-8.17949 -1.08628,-1.60427 -2.08624,-2.10752 -3.10256,-1.46314 -1.01633,0.64438 0.0223,1.19602 -0.19944,2.94244 -0.22171,1.74642 -0.64593,5.14219 -1.49287,7.40531 -0.84694,2.26312 -2.20689,4.68715 -3.45513,6.91026 -1.24824,2.22311 -2.738735,4.94058 -4.01923,6.41667 -1.280495,1.47609 -2.245369,2.48031 -3.173079,2.67948 -0.92771,0.19917 -0.86895,-0.23705 -1.480767,-0.42307 -0.611817,-0.18602 -1.223585,0.46937 -2.185897,-0.70513 -0.962312,-1.1745 -1.094711,-4.18424 -0.775642,-6.76923 0.319069,-2.58499 2.176074,-6.05937 3.102565,-8.25 0.926491,-2.19063 1.006358,-2.95316 2.326923,-4.9359 1.320565,-1.98274 5.388507,-4.51508 5.923077,-6.55769 0.53457,-2.04261 0.79512,-3.31138 -0.84615,-3.73718 -1.641269,-0.4258 -2.285965,3.10882 -4.230774,4.72436 -1.944809,1.61554 -5.24533,3.69627 -7.544871,4.58333 -2.299541,0.88706 -3.899977,0.83466 -5.852565,1.12821 -1.952588,0.29355 -4.227928,0.86008 -5.852565,0.63461 -1.624637,-0.22547 -3.027411,-0.77415 -3.666664,-1.48077 -0.639253,-0.70662 -0.501281,-1.28708 -0.493591,-1.6923 0.0077,-0.40522 0.266247,-0.34467 0.211537,-0.63462 -0.05471,-0.28995 -0.653924,-0.30199 -0.705128,-0.84615 -0.0512,-0.54416 0.08465,-0.82628 1.057693,-1.90385 0.973043,-1.07757 3.318398,-2.74854 5.358974,-3.73718 2.040576,-0.98864 3.439836,-1.28913 6.769232,-2.04487 3.329396,-0.75574 11.045468,0.10492 13.256408,-2.04487 2.210944,-2.14979 2.902714,-2.03088 0.916664,-5.00641 C 98.142147,110.47959 87.002393,110.74176 84.121793,110 c -2.8806,-0.74176 -0.337272,0.0703 -1.410255,-0.42308 -1.072983,-0.49342 -3.490567,-1.78528 -4.724361,-3.03205 -1.233794,-1.24677 -2.445963,-3.01108 -2.608974,-4.16025 -0.163011,-1.14917 0.413317,-1.38602 0.564105,-1.97437 0.150788,-0.588353 -0.240291,-0.893148 0.352563,-1.551276 0.592854,-0.658128 1.547891,-1.089826 3.525641,-1.198719 1.97775,-0.108893 4.978504,0.649554 7.967948,1.762821 2.989444,1.113264 7.391654,3.572524 9.660258,5.217944 2.268604,1.64542 3.217322,3.0702 4.230762,4.01923 1.01344,0.94903 1.06812,1.76209 1.83334,1.69231 0.76522,-0.0698 1.39296,-0.6625 1.26923,-1.69231 z"
       id="path13485"
       sodipodi:nodetypes="zzzzzzzzzzzzzzzzzzzzzzzzzzzzzzzzzzzzzzzzzzzzzzzzzzzzzzzzzzzzzzzzzzzzzzzzzzzzzzzzzzzzzzzzzzzzzzzzzzzzzzzzzzz" /><circle
       style="fill:#181425;fill-opacity:1;stroke-width:0.199398"
       id="path17927"
       cx="110.77565"
       cy="116.59295"
       r="12.058104" /><circle
       style="fill:#e43b44;fill-opacity:1;stroke-width:0.264583"
       id="path20159"
       cx="107.0715"
       cy="113.41795"
       r="2" /><circle
       style="fill:#e43b44;fill-opacity:1;stroke-width:0.264583"
       id="circle20161"
       cx="114.4798"
       cy="113.41795"
       r="2" /><path
       style="fill:#e43b44;fill-opacity:1;stroke-width:0.264583"
       d="m 109.8544,112.97023 -3.21472,-3.56928 1.29636,-0.89748 2.425,3.97295 z"
       id="path20167"
       sodipodi:nodetypes="ccccc" /><path
       style="fill:#e43b44;fill-opacity:1;stroke-width:0.264583"
       d="m 111.571,113.04074 3.34062,-3.63979 -1.29636,-0.89748 -2.50547,4.08853 z"
       id="path20169"
       sodipodi:nodetypes="ccccc" /><path
       style="display:inline;fill:#e43b44;fill-opacity:1;stroke-width:0.17671"
       d="m 106.07787,119.54388 c 0.66145,0.10754 1.06912,-0.36331 1.94454,-0.56714 0.87542,-0.20383 1.71337,-0.37835 2.91682,-0.31138 1.20345,0.067 2.62563,0.44192 3.39048,0.67835 0.76485,0.23644 0.9882,0.58271 1.59553,0.46706 0.60733,-0.11565 0.70181,-0.46633 0.37395,-0.90076 -0.32786,-0.43442 -1.75748,-0.99907 -3.04147,-1.23437 -1.28399,-0.2353 -2.84784,-0.2612 -4.21318,-0.0778 -1.36534,0.18336 -3.18219,0.69485 -3.51513,1.13428 -0.33294,0.43944 -0.11299,0.70426 0.54846,0.8118 z"
       id="path20171"
       sodipodi:nodetypes="zzzzzzzzzz" /></g></svg>
