<?xml version="1.0" encoding="UTF-8" standalone="no"?>
<!-- Created with Inkscape (http://www.inkscape.org/) -->

<svg
   width="210mm"
   height="297mm"
   viewBox="0 0 210 297"
   version="1.1"
   id="svg11101"
   inkscape:version="1.2.2 (732a01da63, 2022-12-09)"
   sodipodi:docname="rock.svg"
   inkscape:export-filename="..\..\enemies\evilRock.png"
   inkscape:export-xdpi="650"
   inkscape:export-ydpi="650"
   xmlns:inkscape="http://www.inkscape.org/namespaces/inkscape"
   xmlns:sodipodi="http://sodipodi.sourceforge.net/DTD/sodipodi-0.dtd"
   xmlns="http://www.w3.org/2000/svg"
   xmlns:svg="http://www.w3.org/2000/svg">
  <sodipodi:namedview
     id="namedview11103"
     pagecolor="#ffffff"
     bordercolor="#000000"
     borderopacity="0.25"
     inkscape:showpageshadow="2"
     inkscape:pageopacity="0.0"
     inkscape:pagecheckerboard="0"
     inkscape:deskcolor="#d1d1d1"
     inkscape:document-units="mm"
     showgrid="false"
     inkscape:zoom="2.6532575"
     inkscape:cx="408.36594"
     inkscape:cy="386.69447"
     inkscape:window-width="2560"
     inkscape:window-height="1377"
     inkscape:window-x="-8"
     inkscape:window-y="601"
     inkscape:window-maximized="1"
     inkscape:current-layer="layer1" />
  <defs
     id="defs11098" />
  <g
     inkscape:label="Layer 1"
     inkscape:groupmode="layer"
     id="layer1">
    <path
       style="fill:#e43b44;fill-opacity:1;stroke-width:0.264583"
       d="m 85.532052,91.842949 9.766024,-4.301284 12.516024,7.439104 -1.1282,6.522431 11.10577,6.80449 -2.11539,10.1891 -7.6859,1.16347 3.17308,9.80128 -4.01923,3.8782 -6.875,1.30449 -2.644231,-0.74038 0.10577,3.38461 -4.61859,2.89103 c 0,0 -2.186218,1.58429 -2.045193,1.6548 0.141026,0.0705 -8.74359,-2.57372 -8.74359,-2.57372 l -0.3875,-3.55865 -7.290382,-3.13324 -2.870068,-5.0131 -4.814613,-0.37612 -3.464038,-5.016 4.160255,-4.54808 -9.554487,-3.49038 0.669872,-4.26603 10.717948,-3.77243 -6.205128,-2.71475 3.631412,-6.381407 5.570511,2.150642 -1.48077,-6.839744 7.544874,-0.599358 L 82.041666,88 Z"
       id="path13325"
       sodipodi:nodetypes="cccccccccccccsccccccccccccccccc" />
    <path
       sodipodi:type="star"
       style="display:none;fill:#e43b44;fill-opacity:1;stroke-width:0.264583"
       id="path11274"
       inkscape:flatsided="false"
       sodipodi:sides="8"
       sodipodi:cx="88.564102"
       sodipodi:cy="113.10257"
       sodipodi:r1="42.322731"
       sodipodi:r2="21.161366"
       sodipodi:arg1="-0.36813077"
       sodipodi:arg2="0.02456831"
       inkscape:rounded="0"
       inkscape:randomized="0"
       d="m 128.05128,97.871801 -18.3322,15.750619 17.53645,16.63202 -24.10019,-1.82545 0.63953,24.16076 L 88.044255,134.25755 71.41223,151.794 73.237686,127.69381 49.076924,128.33334 67.409123,112.58272 49.872671,95.950698 73.97286,97.776153 73.333333,73.615391 89.083949,91.94759 105.71597,74.411138 103.89052,98.511327 Z"
       inkscape:transform-center-x="1.1157682e-06"
       inkscape:transform-center-y="-1.4249142e-06" />
    <circle
       style="fill:#181425;fill-opacity:1;stroke-width:0.258242"
       id="path11392"
       cx="88.564102"
       cy="113.10257"
       r="19.520706" />
    <ellipse
       style="fill:#e43b44;fill-opacity:1;stroke-width:0.264583"
       id="path13261"
       cx="83.801598"
       cy="109.65034"
       rx="2.2211537"
       ry="3.7019229" />
    <ellipse
       style="fill:#e43b44;fill-opacity:1;stroke-width:0.264583"
       id="ellipse13263"
       cx="93.326607"
       cy="109.79137"
       rx="2.2211537"
       ry="3.7019229" />
    <path
       style="fill:#e43b44;fill-opacity:1;stroke-width:0.264583"
       d="m 79.74711,102.0702 7.826925,5.359 0.282051,-1.33975 -7.333334,-4.58335 z"
       id="path13319" />
    <path
       style="fill:#e43b44;fill-opacity:1;stroke-width:0.264583"
       d="m 97.381095,102.0702 -7.826925,5.359 -0.282051,-1.33975 7.333334,-4.58336 z"
       id="path13321" />
  </g>
</svg>
