<?xml version="1.0" encoding="UTF-8" standalone="no"?>
<!-- Created with Inkscape (http://www.inkscape.org/) -->

<svg
   width="53.779198mm"
   height="41.290985mm"
   viewBox="0 0 53.779195 41.290985"
   version="1.1"
   id="svg3479"
   xml:space="preserve"
   inkscape:version="1.2.2 (732a01da63, 2022-12-09)"
   sodipodi:docname="controlsKeyboard.svg"
   inkscape:export-filename="..\..\UI\main_menu\controlsKeyboard.png"
   inkscape:export-xdpi="150"
   inkscape:export-ydpi="150"
   xmlns:inkscape="http://www.inkscape.org/namespaces/inkscape"
   xmlns:sodipodi="http://sodipodi.sourceforge.net/DTD/sodipodi-0.dtd"
   xmlns="http://www.w3.org/2000/svg"
   xmlns:svg="http://www.w3.org/2000/svg"><sodipodi:namedview
     id="namedview3481"
     pagecolor="#ffffff"
     bordercolor="#000000"
     borderopacity="0.25"
     inkscape:showpageshadow="2"
     inkscape:pageopacity="0.0"
     inkscape:pagecheckerboard="0"
     inkscape:deskcolor="#d1d1d1"
     inkscape:document-units="mm"
     showgrid="false"
     inkscape:zoom="1.8761364"
     inkscape:cx="58.631132"
     inkscape:cy="160.96911"
     inkscape:window-width="2560"
     inkscape:window-height="1377"
     inkscape:window-x="-8"
     inkscape:window-y="601"
     inkscape:window-maximized="1"
     inkscape:current-layer="layer1" /><defs
     id="defs3476" /><g
     inkscape:label="Layer 1"
     inkscape:groupmode="layer"
     id="layer1"
     transform="translate(-18.690672,-122.5444)"><rect
       style="fill:#262b44;fill-opacity:1;stroke-width:0.264583"
       id="rect3716"
       width="5.7467947"
       height="5.3237181"
       x="60.447117"
       y="128.61539"
       ry="0.59419709" /><rect
       style="fill:#262b44;fill-opacity:1;stroke-width:0.264583"
       id="rect3724"
       width="11.810898"
       height="5.6410255"
       x="60.246861"
       y="143.01358"
       ry="0.59419709" /><rect
       style="fill:#262b44;fill-opacity:1;stroke-width:0.264583"
       id="rect3726"
       width="33.599358"
       height="5.2884617"
       x="38.870514"
       y="151.64273"
       ry="0.59419709" /><rect
       style="fill:#262b44;fill-opacity:1;stroke-width:0.264583"
       id="rect3728"
       width="5.7467947"
       height="5.3237181"
       x="60.447117"
       y="134.38013"
       ry="0.59419709" /><rect
       style="fill:#262b44;fill-opacity:1;stroke-width:0.264583"
       id="rect3730"
       width="5.7467947"
       height="5.3237181"
       x="66.723076"
       y="134.38013"
       ry="0.59419709" /><rect
       style="fill:#262b44;fill-opacity:1;stroke-width:0.264583"
       id="rect3732"
       width="5.7467947"
       height="5.3237181"
       x="54.171154"
       y="134.46826"
       ry="0.59419709" /><text
       xml:space="preserve"
       style="font-style:normal;font-variant:normal;font-weight:normal;font-stretch:normal;font-size:4.23333px;font-family:'Rubik Mono One';-inkscape-font-specification:'Rubik Mono One';fill:#000000;stroke-width:0.264583"
       x="61.504414"
       y="132.75891"
       id="text3788"><tspan
         sodipodi:role="line"
         id="tspan3786"
         style="font-style:normal;font-variant:normal;font-weight:normal;font-stretch:normal;font-size:4.23333px;font-family:'Rubik Mono One';-inkscape-font-specification:'Rubik Mono One';fill:#ffffff;stroke-width:0.264583"
         x="61.504414"
         y="132.75891">W</tspan></text><text
       xml:space="preserve"
       style="font-style:normal;font-variant:normal;font-weight:normal;font-stretch:normal;font-size:4.23333px;font-family:'Rubik Mono One';-inkscape-font-specification:'Rubik Mono One';fill:#ffffff;stroke-width:0.264583"
       x="55.232685"
       y="138.61179"
       id="text399"><tspan
         sodipodi:role="line"
         id="tspan397"
         style="stroke-width:0.264583"
         x="55.232685"
         y="138.61179">A</tspan></text><text
       xml:space="preserve"
       style="font-style:normal;font-variant:normal;font-weight:normal;font-stretch:normal;font-size:4.23333px;font-family:'Rubik Mono One';-inkscape-font-specification:'Rubik Mono One';fill:#ffffff;stroke-width:0.264583"
       x="61.531933"
       y="138.52365"
       id="text403"><tspan
         sodipodi:role="line"
         id="tspan401"
         style="stroke-width:0.264583"
         x="61.531933"
         y="138.52365">S</tspan></text><text
       xml:space="preserve"
       style="font-style:normal;font-variant:normal;font-weight:normal;font-stretch:normal;font-size:4.23333px;font-family:'Rubik Mono One';-inkscape-font-specification:'Rubik Mono One';fill:#ffffff;stroke-width:0.264583"
       x="67.754974"
       y="138.52365"
       id="text407"><tspan
         sodipodi:role="line"
         id="tspan405"
         style="stroke-width:0.264583"
         x="67.754974"
         y="138.52365">D</tspan></text><text
       xml:space="preserve"
       style="font-style:normal;font-variant:normal;font-weight:normal;font-stretch:normal;font-size:2.11667px;font-family:'Rubik Mono One';-inkscape-font-specification:'Rubik Mono One';fill:#ffffff;stroke-width:0.264583"
       x="61.644867"
       y="146.57492"
       id="text411"><tspan
         sodipodi:role="line"
         id="tspan409"
         style="font-size:2.11667px;stroke-width:0.264583"
         x="61.644867"
         y="146.57492">SHIFT</tspan></text><text
       xml:space="preserve"
       style="font-style:normal;font-variant:normal;font-weight:normal;font-stretch:normal;font-size:3.52778px;font-family:'Rubik Mono One';-inkscape-font-specification:'Rubik Mono One';fill:#ffffff;stroke-width:0.264583"
       x="48.194832"
       y="155.52168"
       id="text415"><tspan
         sodipodi:role="line"
         id="tspan413"
         style="font-size:3.52778px;stroke-width:0.264583"
         x="48.194832"
         y="155.52168">SPACE</tspan></text><text
       xml:space="preserve"
       style="font-style:normal;font-variant:normal;font-weight:normal;font-stretch:normal;font-size:3.52777px;font-family:'Rubik Mono One';-inkscape-font-specification:'Rubik Mono One';fill:#ffffff;stroke-width:0.264583"
       x="18.602478"
       y="125.04912"
       id="text765"><tspan
         sodipodi:role="line"
         id="tspan763"
         style="fill:#ffffff;stroke-width:0.264583"
         x="18.602478"
         y="125.04912">A and D to move</tspan></text><path
       style="fill:none;fill-rule:evenodd;stroke:#ffffff;stroke-width:0.264583px;stroke-linecap:butt;stroke-linejoin:miter;stroke-opacity:1"
       d="m 41.005592,125.0844 v 12.04572 h 13.165557"
       id="path866"
       inkscape:connector-type="polyline"
       inkscape:connector-curvature="0"
       sodipodi:nodetypes="ccc" /><path
       style="fill:none;fill-rule:evenodd;stroke:#ffffff;stroke-width:0.264583px;stroke-linecap:butt;stroke-linejoin:miter;stroke-opacity:1"
       d="m 63.532049,123.8144 h 6.064424 v 10.56572"
       id="path919"
       inkscape:connector-type="polyline"
       inkscape:connector-curvature="0"
       sodipodi:nodetypes="ccc" /><text
       xml:space="preserve"
       style="font-style:normal;font-variant:normal;font-weight:normal;font-stretch:normal;font-size:3.52777px;font-family:'Rubik Mono One';-inkscape-font-specification:'Rubik Mono One';fill:#ffffff;stroke-width:0.264583"
       x="18.632317"
       y="147.06882"
       id="text925"><tspan
         sodipodi:role="line"
         id="tspan923"
         style="fill:#ffffff;stroke-width:0.264583"
         x="18.632317"
         y="147.06882">SHIFT to grab</tspan></text><text
       xml:space="preserve"
       style="font-style:normal;font-variant:normal;font-weight:normal;font-stretch:normal;font-size:3.52777px;font-family:'Rubik Mono One';-inkscape-font-specification:'Rubik Mono One';fill:#ffffff;stroke-width:0.264583"
       x="18.530012"
       y="163.80011"
       id="text931"><tspan
         sodipodi:role="line"
         id="tspan929"
         style="fill:#ffffff;stroke-width:0.264583"
         x="18.530012"
         y="163.80011">SPACE to jump</tspan></text><path
       style="fill:none;fill-rule:evenodd;stroke:#ffffff;stroke-width:0.264583px;stroke-linecap:butt;stroke-linejoin:miter;stroke-opacity:1"
       d="m 65.4039,156.93119 -0.05482,5.6342 h -6.94321"
       id="path933"
       inkscape:connector-type="polyline"
       inkscape:connector-curvature="0"
       sodipodi:nodetypes="ccc" /></g></svg>
