[gd_scene load_steps=6 format=2]

[ext_resource path="res://UI/hud/numbers.png" type="Texture" id=1]
[ext_resource path="res://UI/hud/FlipboardNum.cs" type="Script" id=2]

[sub_resource type="StyleBoxFlat" id=2]
bg_color = Color( 0.14902, 0.168627, 0.266667, 1 )
corner_radius_top_left = 8
corner_radius_top_right = 8
corner_radius_bottom_right = 8
corner_radius_bottom_left = 8

[sub_resource type="Shader" id=3]
code = "shader_type canvas_item;

uniform float len = 9;
uniform float pos = 1.0;

void fragment() {
	float section_size = 1.0 / len;
	COLOR = textureLod(TEXTURE, UV + vec2(0, section_size * pos), 0);
}
"

[sub_resource type="ShaderMaterial" id=4]
shader = SubResource( 3 )
shader_param/len = 10.0
shader_param/pos = 0.0

[node name="FlipboardNum" type="PanelContainer"]
anchor_left = 0.5
anchor_top = 0.5
anchor_right = 0.5
anchor_bottom = 0.5
margin_left = -960.0
margin_top = -540.0
margin_right = -920.0
margin_bottom = -481.0
rect_min_size = Vector2( 40, 59 )
custom_styles/panel = SubResource( 2 )
script = ExtResource( 2 )

[node name="Offset" type="Node2D" parent="."]

[node name="Digits" type="Sprite" parent="Offset"]
material = SubResource( 4 )
scale = Vector2( 0.37, 0.37 )
texture = ExtResource( 1 )
centered = false
region_enabled = true
region_rect = Rect2( 0, 0, 109, 156 )
