[gd_scene load_steps=8 format=2]

[ext_resource path="res://world/pickups/gem25.cs" type="Script" id=1]
[ext_resource path="res://world/pickups/gem25.png" type="Texture" id=2]
[ext_resource path="res://util/audio/AudioStreamRandomizer.cs" type="Script" id=3]
[ext_resource path="res://world/pickups/pickup_big.wav" type="AudioStream" id=4]
[ext_resource path="res://world/DropShadow.cs" type="Script" id=5]

[sub_resource type="CircleShape2D" id=1]
radius = 61.2944

[sub_resource type="Gradient" id=2]
offsets = PoolRealArray( 0.111732, 0.664804, 1 )
colors = PoolColorArray( 1, 1, 1, 0.694118, 1, 1, 1, 0.305882, 1, 1, 1, 0 )

[node name="Area2D" type="Area2D"]
script = ExtResource( 1 )

[node name="CollisionShape2D" type="CollisionShape2D" parent="."]
shape = SubResource( 1 )

[node name="CPUParticles2D" type="CPUParticles2D" parent="."]
amount = 12
lifetime = 0.6
randomness = 0.11
local_coords = false
texture = ExtResource( 2 )
emission_shape = 1
emission_sphere_radius = 38.84
spread = 33.44
gravity = Vector2( 0, 0 )
angular_velocity = -13.21
angular_velocity_random = 0.88
scale_amount = 0.25
scale_amount_random = 0.08
color = Color( 1, 1, 1, 0.729412 )
color_ramp = SubResource( 2 )

[node name="Sprite" type="Sprite" parent="."]
texture = ExtResource( 2 )
script = ExtResource( 5 )

[node name="Pickup" type="Node" parent="."]
script = ExtResource( 3 )
PitchScaleRange = 0.1
VolumeDbCenter = 0.246
VolumeDbRange = 0.2

[node name="Pickup" type="AudioStreamPlayer" parent="Pickup"]
stream = ExtResource( 4 )
volume_db = -0.8
bus = "Effects"
