[gd_scene load_steps=8 format=2]

[ext_resource path="res://world/pickups/gem4.png" type="Texture" id=1]
[ext_resource path="res://world/pickups/StaticGem.cs" type="Script" id=2]
[ext_resource path="res://world/pickups/small_pickup_sound.tscn" type="PackedScene" id=3]
[ext_resource path="res://world/DropShadow.cs" type="Script" id=4]

[sub_resource type="CircleShape2D" id=1]
radius = 20.0

[sub_resource type="Animation" id=2]
length = 0.001
tracks/0/type = "value"
tracks/0/path = NodePath("Sprite:rotation_degrees")
tracks/0/interp = 1
tracks/0/loop_wrap = true
tracks/0/imported = false
tracks/0/enabled = true
tracks/0/keys = {
"times": PoolRealArray( 0 ),
"transitions": PoolRealArray( 1 ),
"update": 0,
"values": [ 0.0 ]
}

[sub_resource type="Animation" id=3]
resource_name = "Spin"
loop = true
tracks/0/type = "value"
tracks/0/path = NodePath("Sprite:rotation_degrees")
tracks/0/interp = 2
tracks/0/loop_wrap = true
tracks/0/imported = false
tracks/0/enabled = true
tracks/0/keys = {
"times": PoolRealArray( 0, 1 ),
"transitions": PoolRealArray( 1, 1 ),
"update": 0,
"values": [ 0.0, 360.0 ]
}

[node name="StaticGem2" type="Area2D"]
script = ExtResource( 2 )

[node name="Shape" type="CollisionShape2D" parent="."]
shape = SubResource( 1 )

[node name="Sprite" type="Sprite" parent="."]
scale = Vector2( 0.021, 0.021 )
texture = ExtResource( 1 )
script = ExtResource( 4 )

[node name="Spin" type="AnimationPlayer" parent="."]
autoplay = "Spin"
anims/RESET = SubResource( 2 )
anims/Spin = SubResource( 3 )

[node name="Pickup" parent="." instance=ExtResource( 3 )]
