[gd_resource type="DynamicFont" load_steps=2 format=2]

[ext_resource path="res://UI/fonts/SofiaSansCondensed-Regular.ttf" type="DynamicFontData" id=1]

[resource]
size = 32
use_mipmaps = true
use_filter = true
font_data = ExtResource( 1 )
